module gitlab.com/pbedat/todomvc

go 1.17

require (
	github.com/gabriel-vasile/mimetype v1.1.0
	github.com/gin-gonic/gin v1.7.7
	github.com/google/uuid v1.3.0
	github.com/jessevdk/go-assets v0.0.0-20160921144138-4f4301a06e15
	gitlab.com/pbedat/uplink v0.0.0-20211122193440-9f08be8b41e7
	golang.org/x/crypto v0.0.0-20211215165025-cf75a172585e
)

require (
	cloud.google.com/go v0.99.0 // indirect
	cloud.google.com/go/storage v1.18.2 // indirect
	github.com/census-instrumentation/opencensus-proto v0.3.0 // indirect
	github.com/cespare/xxhash/v2 v2.1.2 // indirect
	github.com/cncf/udpa/go v0.0.0-20210930031921-04548b0d99d4 // indirect
	github.com/cncf/xds/go v0.0.0-20211216145620-d92e9ce0af51 // indirect
	github.com/envoyproxy/go-control-plane v0.10.1 // indirect
	github.com/envoyproxy/protoc-gen-validate v0.6.2 // indirect
	github.com/fsnotify/fsnotify v1.5.1 // indirect
	github.com/gin-contrib/sse v0.1.0 // indirect
	github.com/go-playground/locales v0.14.0 // indirect
	github.com/go-playground/universal-translator v0.18.0 // indirect
	github.com/go-playground/validator/v10 v10.9.0 // indirect
	github.com/golang/groupcache v0.0.0-20210331224755-41bb18bfe9da // indirect
	github.com/golang/protobuf v1.5.2 // indirect
	github.com/google/go-cmp v0.5.6 // indirect
	github.com/googleapis/gax-go/v2 v2.1.1 // indirect
	github.com/googleapis/google-cloud-go-testing v0.0.0-20210719221736-1c9a4c676720 // indirect
	github.com/hashicorp/hcl v1.0.0 // indirect
	github.com/json-iterator/go v1.1.12 // indirect
	github.com/leodido/go-urn v1.2.1 // indirect
	github.com/magiconair/properties v1.8.5 // indirect
	github.com/mattn/go-isatty v0.0.14 // indirect
	github.com/mitchellh/mapstructure v1.4.3 // indirect
	github.com/modern-go/concurrent v0.0.0-20180306012644-bacd9c7ef1dd // indirect
	github.com/modern-go/reflect2 v1.0.2 // indirect
	github.com/pelletier/go-toml v1.9.4 // indirect
	github.com/rs/zerolog v1.26.1 // indirect
	github.com/spf13/afero v1.7.0 // indirect
	github.com/spf13/cast v1.4.1 // indirect
	github.com/spf13/jwalterweatherman v1.1.0 // indirect
	github.com/spf13/pflag v1.0.5 // indirect
	github.com/spf13/viper v1.10.1 // indirect
	github.com/subosito/gotenv v1.2.0 // indirect
	github.com/ugorji/go/codec v1.2.6 // indirect
	github.com/xtaci/smux v1.5.16 // indirect
	go.opencensus.io v0.23.0 // indirect
	golang.org/x/net v0.0.0-20211216030914-fe4d6282115f // indirect
	golang.org/x/oauth2 v0.0.0-20211104180415-d3ed0bb246c8 // indirect
	golang.org/x/sys v0.0.0-20211216021012-1d35b9e2eb4e // indirect
	golang.org/x/text v0.3.7 // indirect
	golang.org/x/xerrors v0.0.0-20200804184101-5ec99f83aff1 // indirect
	google.golang.org/api v0.63.0 // indirect
	google.golang.org/appengine v1.6.7 // indirect
	google.golang.org/genproto v0.0.0-20211223182754-3ac035c7e7cb // indirect
	google.golang.org/grpc v1.43.0 // indirect
	google.golang.org/protobuf v1.27.1 // indirect
	gopkg.in/ini.v1 v1.66.2 // indirect
	gopkg.in/natefinch/lumberjack.v2 v2.0.0 // indirect
	gopkg.in/yaml.v2 v2.4.0 // indirect
)
